{
   "InspectId": "0",
   "RobotId": 0,
   "TaskHistoryId": 0,
   "TaskId": 0,
   "TaskType": 1,
   "InspectType": 0,
   "Data": "",
   "Tasks": [
      {
         "Id": "0",
         "CameraPose": "0:2/0.0,0.0,0.0/0/0"
      },
      {
         "Id": "20",
         "CameraPose": "0:2/2000.0,0.0,0.0/0/0"
      },
      {
         "Id": "40",
         "CameraPose": "0:2/4000.0,0.0,0.0/0/0"
      },
      {
         "Id": "60",
         "CameraPose": "0:2/6000.0,0.0,0.0/0/0"
      },
      {
         "Id": "80",
         "CameraPose": "0:2/8000.0,0.0,0.0/0/0"
      },
      {
         "Id": "100",
         "CameraPose": "0:2/10000.0,0.0,0.0/0/0"
      },
      {
         "Id": "120",
         "CameraPose": "0:2/12000.0,0.0,0.0/0/0"
      },
      {
         "Id": "140",
         "CameraPose": "0:2/14000.0,0.0,0.0/0/0"
      },
      {
         "Id": "160",
         "CameraPose": "0:2/16000.0,0.0,0.0/0/0"
      },
      {
         "Id": "180",
         "CameraPose": "0:2/18000.0,0.0,0.0/0/0"
      },
      {
         "Id": "200",
         "CameraPose": "0:2/20000.0,0.0,0.0/0/0"
      },
      {
         "Id": "220",
         "CameraPose": "0:2/22000.0,0.0,0.0/0/0"
      },
      {
         "Id": "240",
         "CameraPose": "0:2/24000.0,0.0,0.0/0/0"
      },
      {
         "Id": "260",
         "CameraPose": "0:2/26000.0,0.0,0.0/0/0"
      },
      {
         "Id": "280",
         "CameraPose": "0:2/28000.0,0.0,0.0/0/0"
      },
      {
         "Id": "300",
         "CameraPose": "0:2/30000.0,0.0,0.0/0/0"
      },
      {
         "Id": "320",
         "CameraPose": "0:2/32000.0,0.0,0.0/0/0"
      },
      {
         "Id": "340",
         "CameraPose": "0:2/34000.0,0.0,0.0/0/0"
      },
      {
         "Id": "0",
         "CameraPose": "0:2/0.0,2000.0,0.0/0/0"
      },
      {
         "Id": "20",
         "CameraPose": "0:2/2000.0,2000.0,0.0/0/0"
      },
      {
         "Id": "40",
         "CameraPose": "0:2/4000.0,2000.0,0.0/0/0"
      },
      {
         "Id": "60",
         "CameraPose": "0:2/6000.0,2000.0,0.0/0/0"
      },
      {
         "Id": "80",
         "CameraPose": "0:2/8000.0,2000.0,0.0/0/0"
      },
      {
         "Id": "100",
         "CameraPose": "0:2/10000.0,2000.0,0.0/0/0"
      },
      {
         "Id": "120",
         "CameraPose": "0:2/12000.0,2000.0,0.0/0/0"
      },
      {
         "Id": "140",
         "CameraPose": "0:2/14000.0,2000.0,0.0/0/0"
      },
      {
         "Id": "160",
         "CameraPose": "0:2/16000.0,2000.0,0.0/0/0"
      },
      {
         "Id": "180",
         "CameraPose": "0:2/18000.0,2000.0,0.0/0/0"
      },
      {
         "Id": "200",
         "CameraPose": "0:2/20000.0,2000.0,0.0/0/0"
      },
      {
         "Id": "220",
         "CameraPose": "0:2/22000.0,2000.0,0.0/0/0"
      },
      {
         "Id": "240",
         "CameraPose": "0:2/24000.0,2000.0,0.0/0/0"
      },
      {
         "Id": "260",
         "CameraPose": "0:2/26000.0,2000.0,0.0/0/0"
      },
      {
         "Id": "280",
         "CameraPose": "0:2/28000.0,2000.0,0.0/0/0"
      },
      {
         "Id": "300",
         "CameraPose": "0:2/30000.0,2000.0,0.0/0/0"
      },
      {
         "Id": "320",
         "CameraPose": "0:2/32000.0,2000.0,0.0/0/0"
      },
      {
         "Id": "340",
         "CameraPose": "0:2/34000.0,2000.0,0.0/0/0"
      },
      {
         "Id": "0",
         "CameraPose": "0:2/0.0,4000.0,0.0/0/0"
      },
      {
         "Id": "20",
         "CameraPose": "0:2/2000.0,4000.0,0.0/0/0"
      },
      {
         "Id": "40",
         "CameraPose": "0:2/4000.0,4000.0,0.0/0/0"
      },
      {
         "Id": "60",
         "CameraPose": "0:2/6000.0,4000.0,0.0/0/0"
      },
      {
         "Id": "80",
         "CameraPose": "0:2/8000.0,4000.0,0.0/0/0"
      },
      {
         "Id": "100",
         "CameraPose": "0:2/10000.0,4000.0,0.0/0/0"
      },
      {
         "Id": "120",
         "CameraPose": "0:2/12000.0,4000.0,0.0/0/0"
      },
      {
         "Id": "140",
         "CameraPose": "0:2/14000.0,4000.0,0.0/0/0"
      },
      {
         "Id": "160",
         "CameraPose": "0:2/16000.0,4000.0,0.0/0/0"
      },
      {
         "Id": "180",
         "CameraPose": "0:2/18000.0,4000.0,0.0/0/0"
      },
      {
         "Id": "200",
         "CameraPose": "0:2/20000.0,4000.0,0.0/0/0"
      },
      {
         "Id": "220",
         "CameraPose": "0:2/22000.0,4000.0,0.0/0/0"
      },
      {
         "Id": "240",
         "CameraPose": "0:2/24000.0,4000.0,0.0/0/0"
      },
      {
         "Id": "260",
         "CameraPose": "0:2/26000.0,4000.0,0.0/0/0"
      },
      {
         "Id": "280",
         "CameraPose": "0:2/28000.0,4000.0,0.0/0/0"
      },
      {
         "Id": "300",
         "CameraPose": "0:2/30000.0,4000.0,0.0/0/0"
      },
      {
         "Id": "320",
         "CameraPose": "0:2/32000.0,4000.0,0.0/0/0"
      },
      {
         "Id": "340",
         "CameraPose": "0:2/34000.0,4000.0,0.0/0/0"
      },
      {
         "Id": "0",
         "CameraPose": "0:2/0.0,6000.0,0.0/0/0"
      },
      {
         "Id": "20",
         "CameraPose": "0:2/2000.0,6000.0,0.0/0/0"
      },
      {
         "Id": "40",
         "CameraPose": "0:2/4000.0,6000.0,0.0/0/0"
      },
      {
         "Id": "60",
         "CameraPose": "0:2/6000.0,6000.0,0.0/0/0"
      },
      {
         "Id": "80",
         "CameraPose": "0:2/8000.0,6000.0,0.0/0/0"
      },
      {
         "Id": "100",
         "CameraPose": "0:2/10000.0,6000.0,0.0/0/0"
      },
      {
         "Id": "120",
         "CameraPose": "0:2/12000.0,6000.0,0.0/0/0"
      },
      {
         "Id": "140",
         "CameraPose": "0:2/14000.0,6000.0,0.0/0/0"
      },
      {
         "Id": "160",
         "CameraPose": "0:2/16000.0,6000.0,0.0/0/0"
      },
      {
         "Id": "180",
         "CameraPose": "0:2/18000.0,6000.0,0.0/0/0"
      },
      {
         "Id": "200",
         "CameraPose": "0:2/20000.0,6000.0,0.0/0/0"
      },
      {
         "Id": "220",
         "CameraPose": "0:2/22000.0,6000.0,0.0/0/0"
      },
      {
         "Id": "240",
         "CameraPose": "0:2/24000.0,6000.0,0.0/0/0"
      },
      {
         "Id": "260",
         "CameraPose": "0:2/26000.0,6000.0,0.0/0/0"
      },
      {
         "Id": "280",
         "CameraPose": "0:2/28000.0,6000.0,0.0/0/0"
      },
      {
         "Id": "300",
         "CameraPose": "0:2/30000.0,6000.0,0.0/0/0"
      },
      {
         "Id": "320",
         "CameraPose": "0:2/32000.0,6000.0,0.0/0/0"
      },
      {
         "Id": "340",
         "CameraPose": "0:2/34000.0,6000.0,0.0/0/0"
      },
      {
         "Id": "0",
         "CameraPose": "0:2/0.0,9000.0,0.0/0/0"
      },
      {
         "Id": "90",
         "CameraPose": "0:2/9000.0,9000.0,0.0/0/0"
      },
      {
         "Id": "180",
         "CameraPose": "0:2/18000.0,9000.0,0.0/0/0"
      },
      {
         "Id": "369",
         "CameraPose": "0:2/36000.0,9000.0,0.0/0/0"
      }
   ]
}